{
  "bot_states": [
    {
      "ID": 0,
      "direction": 1.0247829144665319,
      "state": {
        "states": "REPELLING"
      },
      "x_position": -356.30461221754388,
      "y_position": 240.19505899131354
    },
    {
      "ID": 1,
      "direction": 2.1921589137721638,
      "state": {
        "states": "SLEEPING"
      },
      "x_position": -220.59911531660561,
      "y_position": 41.678572404886914
    },
    {
      "ID": 2,
      "direction": 2.6343542118658312,
      "state": {
        "states": "SLEEPING"
      },
      "x_position": 67.462193099925386,
      "y_position": -144.20032964590638
    },
    {
      "ID": 3,
      "direction": 6.5230768987007979,
      "state": {
        "states": "REPELLING"
      },
      "x_position": 83.932792414898216,
      "y_position": -174.85629932200087
    },
    {
      "ID": 4,
      "direction": 1.6169720244121426,
      "state": {
        "states": "REPELLING"
      },
      "x_position": -111.08257661383352,
      "y_position": 20.351712309027029
    },
    {
      "ID": 5,
      "direction": 5.0767925840102235,
      "state": {
        "states": "CONVERGING"
      },
      "x_position": -319.16256125074341,
      "y_position": -250.50841220097507
    },
    {
      "ID": 6,
      "direction": 4.6060733495835429,
      "state": {
        "states": "CONVERGING"
      },
      "x_position": 91.562338038522938,
      "y_position": -52.704356945326495
    },
    {
      "ID": 7,
      "direction": 5.1304803706458468,
      "state": {
        "states": "SEARCHING"
      },
      "x_position": -125.11629172171459,
      "y_position": 297.1256304881137
    },
    {
      "ID": 8,
      "direction": 1.48625920386307,
      "state": {
        "states": "REPELLING"
      },
      "x_position": 31.892564990763653,
      "y_position": 265.881100864899
    },
    {
      "ID": 9,
      "direction": 1.9245444045666287,
      "state": {
        "states": "CONVERGING"
      },
      "x_position": 392.70157290217122,
      "y_position": -74.535678773247184
    },
    {
      "ID": 10,
      "direction": 3.0652672108986461,
      "state": {
        "states": "CONVERGING"
      },
      "x_position": 293.52249398295515,
      "y_position": 78.314930510127013
    },
    {
      "ID": 11,
      "direction": 1.8926371329239298,
      "state": {
        "states": "CONVERGING"
      },
      "x_position": 401.03747498050916,
      "y_position": -122.94068695031011
    },
    {
      "ID": 12,
      "direction": 2.3843102786230248,
      "state": {
        "states": "CONVERGING"
      },
      "x_position": 228.85163100702906,
      "y_position": -70.803662654677666
    },
    {
      "ID": 13,
      "direction": 4.3644087809330028,
      "state": {
        "states": "CONVERGING"
      },
      "x_position": -23.681977628190619,
      "y_position": -178.17144305106848
    },
    {
      "ID": 14,
      "direction": 2.7032980075068913,
      "state": {
        "states": "REPELLING"
      },
      "x_position": -317.18658515454013,
      "y_position": -145.2822737853877
    },
    {
      "ID": 15,
      "direction": 5.3022636259723317,
      "state": {
        "states": "CONVERGING"
      },
      "x_position": -5.8528590510729099,
      "y_position": -57.032491121426148
    },
    {
      "ID": 16,
      "direction": 2.8486459053837749,
      "state": {
        "states": "CONVERGING"
      },
      "x_position": -300.94271690508077,
      "y_position": 214.78412870906155
    },
    {
      "ID": 17,
      "direction": 6.0813451447308431,
      "state": {
        "states": "CONVERGING"
      },
      "x_position": 159.98423831461002,
      "y_position": 156.26443507964473
    },
    {
      "ID": 18,
      "direction": 4.0280283191361894,
      "state": {
        "states": "SLEEPING"
      },
      "x_position": 261.27573150170178,
      "y_position": -101.72331146385386
    },
    {
      "ID": 19,
      "direction": 2.248889686655994,
      "state": {
        "states": "SLEEPING"
      },
      "x_position": -287.14199951849793,
      "y_position": -194.48036869338407
    },
    {
      "ID": 20,
      "direction": 2.8087948475453524,
      "state": {
        "states": "SLEEPING"
      },
      "x_position": -135.90940043073988,
      "y_position": 54.226376449295032
    },
    {
      "ID": 21,
      "direction": 1.2526924175279517,
      "state": {
        "states": "SLEEPING"
      },
      "x_position": -96.607186260403935,
      "y_position": -211.96933701389017
    },
    {
      "ID": 22,
      "direction": 1.548614068359937,
      "state": {
        "states": "SLEEPING"
      },
      "x_position": -130.66559093572087,
      "y_position": -208.2670117125902
    },
    {
      "ID": 23,
      "direction": 0.79215473832162853,
      "state": {
        "states": "SLEEPING"
      },
      "x_position": -159.81432979344913,
      "y_position": -240.22681139193543
    },
    {
      "ID": 24,
      "direction": 5.7044357414319844,
      "state": {
        "states": "SLEEPING"
      },
      "x_position": 23.64157213675426,
      "y_position": 229.09937848281388
    },
    {
      "ID": 25,
      "direction": 2.3491049894431346,
      "state": {
        "states": "REPELLING"
      },
      "x_position": -213.01288060611631,
      "y_position": -234.62637705038722
    },
    {
      "ID": 26,
      "direction": 2.3312053952070912,
      "state": {
        "states": "SLEEPING"
      },
      "x_position": 319.57089766868893,
      "y_position": -182.42324481094835
    },
    {
      "ID": 27,
      "direction": 2.8015821092117519,
      "state": {
        "states": "CONVERGING"
      },
      "x_position": -129.59503681080901,
      "y_position": 178.39234217815385
    },
    {
      "ID": 28,
      "direction": 0.72984370811691945,
      "state": {
        "states": "REPELLING"
      },
      "x_position": -201.92175945618914,
      "y_position": 81.221971070983884
    },
    {
      "ID": 29,
      "direction": 4.8643540558181497,
      "state": {
        "states": "CONVERGING"
      },
      "x_position": 260.92941105259968,
      "y_position": 122.5464079005386
    },
    {
      "ID": 30,
      "direction": -0.094351887334065174,
      "state": {
        "states": "CONVERGING"
      },
      "x_position": -65.98619809142977,
      "y_position": 207.07658764406006
    },
    {
      "ID": 31,
      "direction": 1.2668857090052261,
      "state": {
        "states": "SEARCHING"
      },
      "x_position": -337.46983085741749,
      "y_position": 7.4920405670690133
    },
    {
      "ID": 32,
      "direction": 4.125311013819478,
      "state": {
        "states": "SLEEPING"
      },
      "x_position": 255.85986790208341,
      "y_position": -136.78947977467666
    },
    {
      "ID": 33,
      "direction": 4.7735549662735162,
      "state": {
        "states": "SLEEPING"
      },
      "x_position": -89.082027451696575,
      "y_position": 46.549977982486666
    },
    {
      "ID": 34,
      "direction": 2.727096731902718,
      "state": {
        "states": "CONVERGING"
      },
      "x_position": 198.51264267099162,
      "y_position": -13.129071402102603
    },
    {
      "ID": 35,
      "direction": 1.2858857981906333,
      "state": {
        "states": "SLEEPING"
      },
      "x_position": 246.64668471530277,
      "y_position": 155.11411863773844
    },
    {
      "ID": 36,
      "direction": 3.4193346953768549,
      "state": {
        "states": "CONVERGING"
      },
      "x_position": -283.71204200006292,
      "y_position": -159.58006929714526
    },
    {
      "ID": 37,
      "direction": 0.99153141948067791,
      "state": {
        "states": "SLEEPING"
      },
      "x_position": 302.12421249755835,
      "y_position": -133.24535988504135
    },
    {
      "ID": 38,
      "direction": 5.5917562002790957,
      "state": {
        "states": "SLEEPING"
      },
      "x_position": -173.40710014217731,
      "y_position": 50.4714335093255
    },
    {
      "ID": 39,
      "direction": 0.15672145318235212,
      "state": {
        "states": "CONVERGING"
      },
      "x_position": 307.32867891474035,
      "y_position": 150.75343686082039
    },
    {
      "ID": 40,
      "direction": -0.15678415287595079,
      "state": {
        "states": "CONVERGING"
      },
      "x_position": 122.70962645234263,
      "y_position": 255.23330756535236
    },
    {
      "ID": 41,
      "direction": 1.9162626817588675,
      "state": {
        "states": "CONVERGING"
      },
      "x_position": 273.64477912520942,
      "y_position": 239.11655657321475
    },
    {
      "ID": 42,
      "direction": 5.6781775466777269,
      "state": {
        "states": "REPELLING"
      },
      "x_position": 222.20286405641758,
      "y_position": 271.72967829122297
    },
    {
      "ID": 43,
      "direction": 3.4128276008452962,
      "state": {
        "states": "CONVERGING"
      },
      "x_position": -74.319262212504327,
      "y_position": -95.046239772275683
    },
    {
      "ID": 44,
      "direction": 3.1116291918227708,
      "state": {
        "states": "SEARCHING"
      },
      "x_position": 31.05864251144315,
      "y_position": -295.94152972609459
    },
    {
      "ID": 45,
      "direction": 5.2411587106715301,
      "state": {
        "states": "SLEEPING"
      },
      "x_position": -205.45188951950493,
      "y_position": 180.74476594723751
    },
    {
      "ID": 46,
      "direction": 3.9252254167982845,
      "state": {
        "states": "REPELLING"
      },
      "x_position": -354.07983089599037,
      "y_position": 281.33139034231584
    },
    {
      "ID": 47,
      "direction": 4.7345080269096647,
      "state": {
        "states": "SEARCHING"
      },
      "x_position": 13.687967225971216,
      "y_position": 129.09329056979294
    },
    {
      "ID": 48,
      "direction": 5.2353921649723274,
      "state": {
        "states": "SLEEPING"
      },
      "x_position": -188.45388976953015,
      "y_position": 131.72103158527099
    },
    {
      "ID": 49,
      "direction": 5.2215627439385743,
      "state": {
        "states": "SLEEPING"
      },
      "x_position": 204.495269310971,
      "y_position": 231.6314250479717
    }
  ],
  "ticks": 239
}